^C:\USERS\FS5VE\DOWNLOADS\WOLFSSL-EXAMPLES-MASTER\SGX_WINDOWS\ENCLAVE\ENCLAVE.CPP
C:\USERS\FS5VE\DOWNLOADS\WOLFSSL-EXAMPLES-MASTER\SGX_WINDOWS\ENCLAVE\SIMULATION\VC140.PDB
C:\USERS\FS5VE\DOWNLOADS\WOLFSSL-EXAMPLES-MASTER\SGX_WINDOWS\ENCLAVE\SIMULATION\ENCLAVE.OBJ
^C:\USERS\FS5VE\DOWNLOADS\WOLFSSL-EXAMPLES-MASTER\SGX_WINDOWS\ENCLAVE\ENCLAVE_T.C
C:\USERS\FS5VE\DOWNLOADS\WOLFSSL-EXAMPLES-MASTER\SGX_WINDOWS\ENCLAVE\SIMULATION\VC140.PDB
C:\USERS\FS5VE\DOWNLOADS\WOLFSSL-EXAMPLES-MASTER\SGX_WINDOWS\ENCLAVE\SIMULATION\ENCLAVE_T.OBJ
