^C:\USERS\FS5VE\DOWNLOADS\WOLFSSL-EXAMPLES-MASTER\SGX_WINDOWS\BENCHMARKS\STDAFX.CPP
C:\USERS\FS5VE\DOWNLOADS\WOLFSSL-EXAMPLES-MASTER\SGX_WINDOWS\BENCHMARKS\X64\SIMULATION\BENCHMARK.PCH
C:\USERS\FS5VE\DOWNLOADS\WOLFSSL-EXAMPLES-MASTER\SGX_WINDOWS\BENCHMARKS\X64\SIMULATION\VC140.PDB
C:\USERS\FS5VE\DOWNLOADS\WOLFSSL-EXAMPLES-MASTER\SGX_WINDOWS\BENCHMARKS\X64\SIMULATION\VC140.IDB
C:\USERS\FS5VE\DOWNLOADS\WOLFSSL-EXAMPLES-MASTER\SGX_WINDOWS\BENCHMARKS\X64\SIMULATION\STDAFX.OBJ
^C:\USERS\FS5VE\DOWNLOADS\WOLFSSL-EXAMPLES-MASTER\SGX_WINDOWS\BENCHMARKS\BENCHMARKS.CPP
C:\USERS\FS5VE\DOWNLOADS\WOLFSSL-EXAMPLES-MASTER\SGX_WINDOWS\BENCHMARKS\X64\SIMULATION\VC140.PDB
C:\USERS\FS5VE\DOWNLOADS\WOLFSSL-EXAMPLES-MASTER\SGX_WINDOWS\BENCHMARKS\X64\SIMULATION\VC140.IDB
C:\USERS\FS5VE\DOWNLOADS\WOLFSSL-EXAMPLES-MASTER\SGX_WINDOWS\BENCHMARKS\X64\SIMULATION\BENCHMARKS.OBJ
^C:\USERS\FS5VE\DOWNLOADS\WOLFSSL-EXAMPLES-MASTER\SGX_WINDOWS\BENCHMARKS\ENCLAVE_U.C
C:\USERS\FS5VE\DOWNLOADS\WOLFSSL-EXAMPLES-MASTER\SGX_WINDOWS\BENCHMARKS\X64\SIMULATION\VC140.PDB
C:\USERS\FS5VE\DOWNLOADS\WOLFSSL-EXAMPLES-MASTER\SGX_WINDOWS\BENCHMARKS\X64\SIMULATION\VC140.IDB
C:\USERS\FS5VE\DOWNLOADS\WOLFSSL-EXAMPLES-MASTER\SGX_WINDOWS\BENCHMARKS\X64\SIMULATION\ENCLAVE_U.OBJ
